<?xml version="1.0" standalone="no"?>
<!DOCTYPE svg PUBLIC "-//W3C//DTD SVG 20010904//EN"
 "http://www.w3.org/TR/2001/REC-SVG-20010904/DTD/svg10.dtd">
<svg version="1.0" xmlns="http://www.w3.org/2000/svg"
 width="789.000000pt" height="789.000000pt" viewBox="0 0 789.000000 789.000000"
 preserveAspectRatio="xMidYMid meet">
<metadata>
Created by potrace 1.11, written by Peter Selinger 2001-2013
</metadata>
<g transform="translate(0.000000,789.000000) scale(0.100000,-0.100000)"
fill="#000000" stroke="none">
<path d="M4984 7635 c109 -142 305 -510 337 -631 21 -81 29 -266 16 -364 -48
-359 -257 -655 -527 -747 -213 -73 -442 -1 -519 162 -31 66 -32 168 -1 248 12
31 28 63 36 71 8 8 14 18 14 22 0 13 73 73 110 91 70 33 193 46 283 29 21 -4
37 -4 37 0 0 10 -56 118 -85 164 -14 22 -51 70 -82 107 -180 212 -334 317
-653 443 -114 46 -270 98 -315 106 -5 1 -12 3 -15 4 -3 1 -13 3 -22 5 -9 2
-40 8 -70 15 -52 12 -76 17 -120 24 -13 1 -42 6 -66 10 -59 11 -90 15 -142 21
-25 2 -61 7 -80 10 -19 3 -64 8 -100 10 -168 12 -200 13 -200 11 0 -5 207 -86
219 -86 6 0 11 -4 11 -10 0 -5 6 -10 14 -10 25 0 201 -95 284 -154 179 -126
306 -264 382 -416 59 -120 84 -243 84 -430 1 -129 -8 -199 -32 -270 -41 -116
-90 -176 -180 -218 -50 -24 -69 -27 -162 -27 -92 0 -112 3 -160 26 -137 64
-223 225 -189 353 14 53 62 128 121 190 27 27 48 51 48 55 0 13 -120 78 -200
108 -36 13 -72 27 -80 30 -8 3 -19 7 -25 9 -186 47 -309 76 -345 80 -25 3 -59
9 -77 14 -77 20 -358 2 -538 -35 -188 -39 -362 -101 -562 -202 -62 -32 -125
-67 -140 -79 l-28 -23 35 8 c51 10 377 0 398 -13 4 -2 28 -7 52 -11 76 -10 88
-13 127 -25 54 -16 143 -49 178 -65 79 -36 164 -78 200 -98 130 -74 105 -57
205 -135 148 -115 193 -194 192 -331 0 -91 -1 -94 -22 -156 -29 -87 -100 -166
-164 -180 -17 -4 -38 -9 -46 -11 -38 -10 -140 -10 -186 1 -99 23 -209 104
-231 171 -21 62 2 180 58 302 16 35 29 66 29 68 0 6 -153 -3 -210 -11 -19 -3
-53 -7 -75 -9 -130 -13 -339 -87 -490 -174 -29 -16 -199 -128 -220 -144 -212
-163 -302 -259 -437 -469 -40 -63 -84 -134 -97 -157 -26 -50 -31 -51 74 18 73
47 294 180 300 180 2 0 28 11 57 24 201 91 454 117 618 64 53 -17 130 -70 178
-122 43 -47 97 -147 106 -196 2 -14 5 -25 6 -25 1 0 3 -16 4 -35 8 -153 -166
-324 -329 -323 -69 0 -86 3 -139 26 -21 9 -42 17 -47 17 -5 0 -9 5 -9 10 0 6
-6 10 -13 10 -6 0 -35 24 -62 53 -64 67 -110 158 -114 225 -1 9 -5 10 -14 2
-6 -6 -43 -34 -82 -62 -71 -52 -299 -275 -345 -337 -14 -18 -32 -41 -40 -50
-47 -52 -154 -243 -212 -376 -14 -33 -40 -105 -57 -160 -18 -55 -35 -107 -38
-115 -4 -8 -5 -19 -4 -23 1 -5 -3 -24 -8 -42 -13 -48 -3 -50 31 -7 95 123 221
253 314 324 59 45 181 118 206 122 7 1 29 8 49 14 141 48 389 -24 479 -140 72
-94 85 -228 33 -340 -36 -76 -85 -129 -154 -163 -40 -21 -125 -40 -164 -37
-87 5 -151 15 -153 23 -2 5 -7 7 -12 4 -23 -14 -122 50 -169 109 l-29 37 -19
-28 c-10 -16 -29 -53 -42 -83 -13 -30 -28 -64 -32 -75 -5 -11 -33 -94 -63
-185 -50 -151 -65 -213 -101 -400 -3 -14 -7 -34 -9 -45 -13 -67 -19 -160 -21
-309 -1 -225 18 -343 39 -235 8 42 55 178 75 217 10 20 19 39 19 42 0 8 26 65
32 70 3 3 11 18 18 34 12 28 75 128 97 153 5 7 21 27 35 45 51 66 179 184 223
206 162 81 302 58 430 -71 135 -135 150 -293 43 -441 -60 -81 -131 -122 -226
-130 -58 -5 -169 42 -235 99 -22 19 -45 35 -51 35 -18 0 -63 -104 -86 -199
-17 -73 -19 -106 -14 -216 3 -71 10 -152 16 -180 7 -27 14 -63 16 -78 12 -65
68 -217 110 -295 44 -85 99 -162 114 -162 4 0 2 24 -6 54 -44 169 -2 356 105
463 78 77 146 104 274 108 217 6 423 -123 525 -329 49 -98 70 -194 67 -301 -4
-118 -21 -177 -81 -272 -39 -62 -158 -183 -180 -183 -3 0 -20 -10 -37 -22 -18
-13 -32 -21 -32 -19 0 2 -25 -4 -55 -14 -67 -23 -70 -24 -150 -35 -70 -9 -205
-6 -273 6 -23 4 -44 8 -47 9 -17 2 -108 28 -125 35 -288 115 -482 274 -631
517 -41 67 -39 51 9 -92 57 -172 134 -300 253 -421 43 -44 97 -94 119 -110 22
-16 42 -32 45 -35 6 -7 144 -98 175 -115 11 -6 38 -21 60 -34 57 -32 232 -120
240 -120 4 0 21 -6 38 -14 35 -15 67 -28 82 -32 6 -1 44 -14 85 -29 84 -30
406 -114 460 -120 19 -2 67 -8 105 -12 90 -10 468 -10 565 1 92 10 128 14 160
21 13 2 42 7 65 10 22 3 48 8 57 11 9 3 25 6 35 8 112 22 420 130 443 156 3 3
23 14 45 25 52 26 175 106 174 114 0 3 -58 44 -128 90 -70 46 -140 94 -157
107 -16 13 -65 52 -109 86 -178 138 -290 257 -472 503 -57 77 -107 145 -111
150 -4 6 -28 39 -52 75 -24 36 -46 67 -49 70 -3 3 -10 12 -16 22 -5 9 -32 49
-59 88 -98 147 -245 485 -281 646 -2 11 -9 35 -15 54 -23 73 -66 283 -80 390
-34 260 -32 509 6 670 3 14 8 39 11 55 9 58 75 261 109 340 31 69 116 220 134
235 3 3 14 18 23 33 10 16 24 36 32 45 8 9 56 69 107 132 85 105 131 153 228
239 53 47 188 135 286 187 48 25 94 50 103 55 16 8 87 39 106 45 6 2 62 21
126 43 64 22 128 42 142 45 15 3 35 7 45 10 9 3 29 8 45 11 15 3 37 7 50 9 23
5 95 15 157 22 45 5 226 4 265 -1 17 -2 46 -7 65 -10 19 -4 46 -9 60 -11 42
-8 91 -24 180 -62 308 -129 571 -439 675 -797 27 -92 44 -161 53 -225 9 -59 8
-345 -1 -390 -4 -19 -10 -48 -13 -65 -13 -73 -69 -236 -105 -308 -61 -121
-142 -231 -229 -313 -69 -65 -96 -86 -165 -131 -64 -42 -225 -126 -225 -118 0
2 -15 -2 -34 -10 -19 -8 -49 -17 -68 -20 -18 -3 -55 -9 -83 -14 -41 -7 -134
-7 -245 0 -81 6 -297 93 -385 156 -63 45 -200 186 -230 237 -45 77 -63 152
-59 252 1 49 5 96 7 104 2 8 7 33 11 55 13 66 75 185 124 238 111 118 286 152
467 89 28 -9 52 -20 53 -24 2 -5 9 -8 16 -8 7 0 30 -15 52 -34 78 -67 116
-191 91 -301 -5 -22 -10 -48 -13 -59 -5 -28 -61 -143 -84 -177 -12 -16 -19
-29 -15 -29 13 0 186 94 231 126 198 137 297 405 249 669 -53 291 -221 458
-520 520 -85 17 -231 23 -305 12 -90 -14 -106 -18 -175 -39 -64 -20 -233 -100
-245 -116 -3 -4 -23 -19 -45 -34 -22 -14 -55 -40 -73 -57 -18 -17 -37 -31 -43
-31 -5 0 -9 -3 -9 -7 0 -5 -19 -28 -41 -53 -73 -80 -157 -215 -199 -320 -12
-30 -26 -64 -31 -75 -7 -17 -44 -143 -54 -185 -77 -336 -63 -580 47 -850 68
-168 209 -409 327 -560 61 -79 241 -266 356 -370 195 -177 433 -352 781 -575
159 -102 142 -91 289 -181 l109 -68 355 179 c195 99 360 185 367 192 6 7 17
14 24 15 22 5 218 120 344 203 34 21 65 39 69 40 4 0 11 5 15 10 4 6 36 30 72
54 36 25 67 48 70 51 3 3 23 19 45 35 22 17 42 32 45 35 3 3 25 21 50 40 25
19 50 39 56 45 6 5 40 35 75 65 205 178 387 365 542 560 38 47 74 92 80 100 7
8 33 44 57 80 25 36 47 67 50 70 6 5 39 55 55 82 5 10 38 63 73 118 34 55 62
103 62 105 0 3 11 22 24 43 12 20 23 39 24 42 0 3 21 48 46 100 59 127 115
267 108 274 -3 3 0 6 6 6 7 0 12 6 12 14 0 8 5 27 12 43 6 15 10 32 9 37 -1 4
2 13 7 20 6 6 13 27 16 46 7 33 6 34 -9 15 -92 -117 -361 -390 -455 -462 -157
-122 -280 -179 -410 -191 -44 -4 -85 -5 -92 -1 -7 4 -27 9 -44 12 -58 9 -153
59 -190 100 -53 58 -76 117 -75 197 2 124 48 198 154 246 52 24 76 28 147 29
80 0 89 -2 158 -40 39 -21 72 -43 72 -47 0 -4 6 -8 14 -8 8 0 16 -4 18 -8 2
-4 17 -18 35 -30 32 -22 32 -23 51 -4 54 54 222 316 222 346 0 8 4 16 8 18 9
3 102 229 102 247 0 5 5 22 11 38 6 15 10 29 10 30 0 2 7 22 15 45 15 43 52
182 61 227 2 14 6 28 8 32 3 4 7 24 11 44 3 21 8 47 10 59 3 11 7 37 10 56 3
19 7 49 10 65 12 82 16 128 16 221 0 56 -4 109 -9 119 -9 16 -12 13 -23 -21
-19 -56 -121 -268 -134 -276 -6 -4 -8 -8 -4 -8 9 0 -72 -138 -120 -205 -115
-160 -379 -344 -532 -371 -76 -13 -113 -10 -175 11 -151 53 -239 168 -240 312
-1 40 3 73 7 73 4 0 8 7 8 15 0 26 36 89 80 137 41 46 115 89 157 92 13 0 23
3 23 6 0 3 24 5 53 4 118 -2 182 -25 296 -109 54 -40 66 -45 77 -33 31 31 114
306 138 458 33 202 25 449 -20 690 -9 47 -18 96 -20 109 -3 14 -7 28 -9 32 -3
4 -7 24 -11 45 -3 22 -12 58 -19 81 -8 23 -16 53 -19 67 -9 52 -77 239 -112
309 -42 83 -105 172 -135 187 -19 11 -20 10 -13 -37 10 -65 11 -394 2 -463 -4
-30 -14 -79 -22 -108 -8 -29 -14 -55 -14 -57 -1 -21 -56 -165 -63 -165 -5 0
-9 -7 -9 -15 0 -22 -66 -140 -136 -240 -67 -98 -131 -168 -209 -230 -27 -22
-52 -43 -55 -46 -3 -4 -30 -19 -60 -34 -171 -87 -448 -4 -533 160 -24 48 -31
81 -31 160 1 91 10 133 50 213 41 83 103 143 167 165 81 27 228 11 350 -38 47
-19 63 -22 69 -13 4 7 6 78 4 158 -4 136 -8 179 -22 240 -3 14 -8 36 -10 50
-10 51 -47 166 -72 220 -14 30 -26 57 -26 60 -9 35 -247 395 -285 430 -4 3
-26 30 -51 60 -84 104 -283 311 -380 395 -101 88 -322 245 -345 245 -3 0 11
-20 29 -45z"/>
</g>
</svg>
